<?xml version="1.0" standalone="no"?>
<!DOCTYPE svg PUBLIC "-//W3C//DTD SVG 20010904//EN"
 "http://www.w3.org/TR/2001/REC-SVG-20010904/DTD/svg10.dtd">
<svg version="1.0" xmlns="http://www.w3.org/2000/svg"
 width="2033.000000pt" height="2033.000000pt" viewBox="0 0 2033.000000 2033.000000"
 preserveAspectRatio="xMidYMid meet">
<metadata>
Created by potrace 1.11, written by Peter Selinger 2001-2013
</metadata>
<g transform="translate(0.000000,2033.000000) scale(0.100000,-0.100000)"
fill="#000000" stroke="none">
<path d="M9618 20325 c-2 -1 -74 -6 -160 -9 -86 -4 -167 -9 -180 -11 -13 -2
-63 -6 -113 -10 -49 -3 -103 -8 -120 -9 -52 -6 -168 -17 -215 -22 -25 -3 -56
-7 -70 -9 -14 -2 -51 -7 -83 -10 -32 -4 -66 -8 -77 -10 -10 -2 -40 -6 -67 -10
-26 -4 -59 -8 -72 -11 -13 -2 -45 -6 -70 -10 -25 -4 -55 -8 -66 -10 -11 -2
-60 -11 -110 -20 -124 -21 -282 -52 -330 -63 -22 -6 -83 -20 -135 -31 -811
-181 -1590 -462 -2350 -848 -169 -86 -359 -188 -442 -237 -9 -5 -47 -28 -85
-49 -120 -69 -354 -216 -509 -320 l-152 -101 72 -103 c39 -57 80 -118 91 -136
l20 -34 110 74 c387 262 932 571 1325 752 36 17 96 44 133 61 78 36 375 161
427 180 19 8 49 19 65 26 17 7 53 20 80 30 28 10 64 23 80 30 59 26 454 154
640 209 172 50 555 147 630 160 17 3 73 14 125 26 114 25 465 87 536 95 28 3
61 8 74 10 29 6 155 22 230 30 30 3 71 8 90 10 109 12 142 16 215 21 44 3 98
8 120 9 248 21 1026 28 1265 12 63 -4 141 -10 173 -12 101 -7 286 -23 337 -30
19 -3 60 -7 90 -10 30 -3 66 -8 80 -10 14 -2 48 -7 75 -10 28 -3 61 -7 75 -10
14 -3 41 -7 60 -9 32 -4 199 -30 260 -41 111 -20 251 -47 335 -65 131 -28 124
-26 170 -38 22 -6 51 -13 65 -16 29 -5 190 -45 305 -76 170 -45 479 -141 651
-202 l111 -39 -64 -177 c-93 -255 -141 -385 -148 -403 -5 -13 -33 -6 -188 46
-282 95 -439 140 -742 215 -181 44 -539 120 -640 135 -22 3 -51 8 -65 10 -73
12 -162 26 -206 30 -27 3 -58 8 -69 9 -11 2 -45 7 -75 11 -30 3 -68 8 -85 10
-16 2 -61 6 -100 10 -38 3 -84 8 -102 10 -17 3 -73 7 -125 11 -51 3 -109 7
-128 9 -211 22 -940 22 -1180 0 -19 -1 -82 -6 -140 -10 -58 -3 -116 -8 -130
-10 -14 -2 -59 -7 -100 -10 -41 -4 -82 -8 -90 -10 -8 -2 -44 -6 -80 -10 -36
-4 -121 -15 -190 -26 -69 -11 -155 -24 -193 -29 -37 -6 -86 -14 -110 -19 -23
-6 -64 -13 -92 -17 -27 -3 -53 -8 -56 -10 -3 -2 -21 -6 -40 -9 -19 -3 -77 -15
-129 -26 -52 -11 -102 -22 -110 -24 -69 -15 -405 -102 -503 -131 -692 -202
-1269 -444 -1947 -817 -213 -117 -605 -367 -835 -532 -212 -152 -554 -420
-645 -505 -9 -8 -47 -42 -85 -75 -243 -209 -614 -579 -840 -839 -33 -38 -65
-74 -71 -80 -5 -6 -54 -65 -108 -131 -54 -66 -107 -131 -118 -144 -100 -119
-352 -467 -490 -676 -242 -369 -545 -917 -684 -1238 -24 -57 -32 -67 -49 -63
-11 3 -141 59 -289 126 -149 66 -273 120 -278 120 -12 0 -119 -253 -245 -585
-85 -221 -267 -805 -298 -955 -2 -8 -12 -51 -23 -95 -20 -77 -86 -374 -95
-425 -3 -14 -12 -63 -21 -110 -8 -47 -17 -98 -20 -115 -3 -16 -12 -70 -20
-120 -9 -49 -18 -112 -21 -140 -3 -27 -8 -57 -10 -65 -2 -8 -7 -37 -10 -65 -3
-27 -7 -66 -10 -85 -5 -39 -11 -87 -20 -175 -3 -33 -8 -78 -10 -100 -3 -22 -7
-76 -10 -120 -4 -44 -8 -100 -10 -125 -27 -312 -27 -1061 0 -1415 10 -135 16
-202 20 -225 2 -14 7 -59 10 -100 3 -41 8 -88 10 -105 2 -16 7 -50 10 -75 3
-25 7 -54 9 -65 2 -11 7 -47 10 -80 9 -72 9 -76 36 -235 12 -69 23 -138 26
-155 3 -16 7 -37 9 -45 2 -8 6 -26 9 -40 17 -100 31 -169 53 -265 13 -60 26
-121 29 -135 3 -14 25 -104 50 -200 147 -569 325 -1076 570 -1623 55 -121 267
-545 318 -635 20 -35 36 -66 36 -68 0 -2 18 -33 40 -69 22 -36 40 -67 40 -69
0 -5 115 -196 190 -317 76 -120 264 -402 325 -485 29 -39 48 -71 41 -71 -6 0
-68 -41 -138 -92 l-127 -93 41 -56 c156 -214 418 -539 569 -707 15 -16 37 -41
49 -55 114 -133 468 -492 650 -660 63 -58 129 -118 146 -135 39 -37 47 -44
204 -175 69 -58 127 -107 130 -110 7 -7 220 -174 290 -228 30 -23 60 -45 65
-50 89 -70 587 -414 650 -448 11 -6 70 -41 130 -79 244 -151 429 -254 735
-409 257 -130 428 -209 664 -308 416 -173 800 -305 1261 -433 193 -53 580
-144 679 -159 21 -4 41 -8 45 -10 3 -2 28 -7 55 -10 27 -4 53 -9 57 -11 4 -3
24 -7 45 -10 22 -2 107 -15 189 -29 83 -13 173 -27 200 -30 28 -4 64 -9 80
-11 60 -9 192 -24 255 -30 36 -4 79 -8 95 -10 17 -2 68 -7 115 -10 47 -3 103
-8 125 -10 310 -26 1112 -27 1430 0 28 2 84 7 125 10 110 9 175 15 270 26 47
6 103 12 125 14 22 3 56 7 75 10 19 2 55 7 80 10 39 5 167 25 265 41 17 2 66
11 110 19 44 8 94 17 110 20 197 35 717 154 805 184 14 5 61 19 105 31 241 66
792 252 930 314 17 8 73 31 125 51 88 35 289 123 440 193 93 43 393 192 475
237 426 232 705 403 1060 650 63 44 361 263 389 286 6 5 52 41 101 81 84 67
306 250 331 273 6 5 42 37 79 70 231 202 534 500 775 761 341 369 693 821 997
1279 371 560 736 1261 968 1862 25 65 50 127 55 138 40 88 211 612 279 855 61
222 143 563 166 693 3 15 12 58 19 95 8 37 17 87 21 112 3 25 10 61 15 80 5
19 16 87 25 150 9 63 18 126 20 140 2 14 7 48 11 75 3 28 8 58 10 68 2 10 6
45 9 78 4 33 8 68 10 77 1 9 6 53 10 97 4 44 9 94 11 110 1 17 6 71 9 120 4
50 8 100 10 113 26 162 26 1142 0 1437 -2 22 -7 81 -11 130 -10 133 -11 144
-18 215 -4 36 -9 76 -11 90 -3 14 -7 50 -10 80 -6 50 -14 114 -30 225 -3 22
-8 56 -11 75 -39 275 -99 574 -186 925 -27 110 -54 214 -59 230 -5 17 -27 93
-49 170 -50 171 -185 576 -235 705 -157 403 -251 618 -412 940 -157 314 -188
372 -336 625 -329 562 -716 1095 -1172 1614 -156 179 -539 568 -704 717 -29
27 -70 65 -91 84 -43 40 -56 52 -200 175 -179 154 -437 360 -601 478 -13 9
-60 43 -104 75 -76 56 -347 238 -465 313 -205 131 -394 242 -650 382 -85 46
-356 182 -495 247 -115 55 -520 230 -531 230 -3 0 -20 6 -37 14 -50 23 -376
143 -477 176 -509 165 -969 285 -1355 354 -16 3 -41 8 -55 11 -22 4 -247 42
-305 50 -87 13 -293 41 -370 49 -112 13 -133 15 -200 22 -125 11 -148 13 -255
19 -58 4 -125 9 -150 11 -51 6 -927 14 -932 9z m762 -1629 c74 -4 162 -8 195
-11 138 -10 212 -16 240 -19 17 -2 62 -7 100 -11 434 -42 959 -145 1420 -276
287 -82 702 -225 884 -305 20 -9 45 -20 56 -24 11 -4 90 -38 175 -76 258 -114
581 -278 830 -423 30 -18 62 -36 70 -41 298 -185 381 -238 405 -257 6 -4 46
-32 90 -62 283 -192 657 -492 960 -771 108 -99 398 -393 494 -500 52 -58 102
-112 110 -121 17 -17 30 -33 101 -119 25 -30 47 -57 51 -60 40 -33 359 -457
501 -665 337 -495 650 -1084 862 -1620 26 -66 51 -129 56 -140 122 -294 325
-996 385 -1330 2 -11 7 -33 10 -50 21 -111 45 -245 49 -270 2 -16 8 -50 12
-75 4 -25 8 -54 10 -65 22 -172 34 -271 39 -320 3 -33 8 -73 10 -90 4 -30 11
-122 20 -245 23 -318 23 -901 0 -1175 -2 -27 -7 -81 -10 -120 -13 -154 -15
-181 -19 -215 -3 -19 -8 -60 -11 -90 -3 -30 -8 -66 -10 -80 -2 -14 -7 -50 -10
-80 -3 -30 -8 -66 -10 -80 -3 -14 -7 -38 -9 -55 -39 -244 -72 -412 -128 -650
-60 -259 -201 -744 -250 -863 -6 -15 -12 -31 -14 -37 -2 -9 -75 -205 -102
-275 -5 -14 -11 -29 -12 -35 -2 -5 -16 -38 -31 -72 -15 -34 -25 -64 -21 -67 4
-2 36 -16 72 -31 36 -15 133 -56 217 -91 83 -35 153 -64 156 -64 10 0 163 401
230 600 99 296 197 639 242 845 47 219 68 313 71 335 2 14 11 59 19 100 7 41
17 98 21 125 3 28 8 59 11 70 6 33 42 286 48 345 7 65 14 133 20 175 2 17 7
75 10 130 4 55 9 107 10 116 24 130 24 1094 0 1299 -1 14 -6 68 -10 120 -3 52
-8 106 -10 120 -2 14 -7 58 -10 99 -4 41 -8 82 -10 91 -2 9 -6 41 -10 71 -3
30 -8 65 -10 79 -3 21 -16 110 -30 210 -9 62 -36 207 -64 345 -97 475 -193
817 -369 1315 -35 99 -166 424 -212 525 -17 39 -41 93 -53 120 -39 89 -213
437 -272 545 -98 180 -114 208 -187 328 -39 64 -76 126 -82 137 -38 67 -246
377 -346 515 -216 299 -529 680 -739 900 -661 691 -1299 1199 -2081 1655 -210
123 -615 332 -770 399 -25 11 -73 32 -108 48 -71 33 -70 31 -26 120 l24 47 77
-35 c43 -20 98 -45 123 -56 529 -238 1157 -613 1649 -982 51 -39 105 -80 120
-91 390 -290 935 -804 1300 -1225 148 -171 228 -268 331 -402 44 -57 84 -108
89 -115 58 -68 347 -487 460 -668 236 -375 479 -841 654 -1250 167 -393 351
-923 432 -1245 2 -8 16 -62 30 -120 15 -58 28 -112 30 -120 2 -8 12 -53 23
-100 11 -47 30 -132 42 -190 12 -58 24 -114 26 -125 2 -11 9 -47 14 -80 6 -33
12 -72 15 -88 19 -105 35 -212 40 -257 1 -14 7 -59 13 -100 12 -82 18 -134 28
-225 3 -33 7 -73 9 -90 2 -16 7 -70 10 -120 4 -49 8 -110 11 -135 24 -273 23
-939 -1 -1250 -7 -92 -15 -183 -20 -225 -3 -22 -7 -67 -10 -100 -10 -103 -15
-149 -20 -180 -2 -16 -7 -50 -10 -75 -11 -84 -14 -105 -20 -145 -8 -54 -45
-275 -50 -300 -2 -11 -9 -45 -15 -75 -6 -30 -13 -68 -16 -85 -3 -16 -9 -46
-14 -65 -5 -19 -11 -51 -14 -70 -9 -62 -109 -452 -161 -630 -183 -626 -497
-1370 -805 -1905 -13 -22 -37 -65 -54 -95 -138 -243 -429 -685 -568 -865 -4
-5 -65 -84 -135 -175 -69 -91 -129 -167 -132 -170 -4 -3 -26 -30 -51 -60 -25
-30 -47 -57 -50 -60 -3 -3 -32 -36 -65 -75 -146 -171 -499 -545 -516 -545 -3
0 -35 29 -69 65 l-64 64 -85 -83 c-47 -45 -111 -105 -141 -132 -30 -28 -75
-69 -100 -91 -25 -23 -83 -73 -130 -113 -47 -40 -101 -86 -120 -103 -64 -55
-343 -271 -470 -363 -493 -357 -1065 -686 -1615 -929 -71 -31 -149 -65 -172
-76 -24 -10 -45 -19 -48 -19 -4 0 -25 -8 -48 -19 -129 -58 -566 -210 -817
-285 -170 -51 -569 -151 -670 -169 -14 -3 -81 -16 -150 -30 -134 -27 -275 -52
-354 -62 -27 -3 -52 -8 -55 -9 -3 -2 -33 -7 -66 -10 -33 -3 -70 -8 -81 -10
-33 -7 -228 -28 -366 -41 -137 -12 -169 -15 -283 -22 -245 -15 -1104 -7 -1204
12 -9 1 -59 6 -111 9 -52 4 -106 9 -120 11 -14 3 -54 7 -90 10 -36 3 -76 8
-90 10 -24 4 -56 9 -145 20 -98 12 -118 15 -197 29 -45 8 -103 17 -128 21 -98
14 -445 89 -610 131 -96 24 -182 46 -190 48 -23 6 -289 84 -340 100 -25 8 -44
18 -44 22 2 15 104 337 114 362 20 47 13 56 -63 80 -165 54 -407 144 -602 225
-197 81 -254 107 -480 217 -469 229 -946 522 -1369 839 -131 98 -384 301 -450
361 -33 30 -36 33 -137 120 -87 75 -519 506 -605 604 -38 43 -74 84 -79 90
-12 13 -139 161 -169 196 -11 14 -39 48 -61 75 -21 28 -42 52 -45 55 -16 13
-307 410 -382 520 -114 169 -248 385 -347 560 -45 80 -88 156 -97 170 -8 14
-61 117 -117 230 -230 458 -402 889 -551 1385 -42 139 -119 427 -130 485 -3
14 -18 86 -35 160 -16 74 -34 162 -40 195 -6 33 -13 71 -16 85 -13 65 -35 200
-40 245 -3 28 -8 57 -10 65 -3 8 -7 38 -10 65 -3 28 -7 66 -10 85 -2 19 -7 58
-10 85 -3 28 -7 66 -10 85 -4 31 -9 80 -20 220 -5 52 -16 234 -20 325 -5 94
-5 611 0 705 7 158 17 326 20 341 2 9 6 58 10 109 4 51 8 100 10 109 2 9 6 45
10 81 3 36 10 92 15 125 5 33 12 80 15 105 6 46 31 202 40 255 73 409 161 766
279 1130 169 523 326 894 593 1405 165 316 431 739 658 1045 84 114 263 344
275 355 3 3 39 45 80 95 41 49 82 97 90 106 8 8 47 51 85 95 243 274 590 609
880 849 72 59 141 117 155 129 63 55 392 295 545 399 318 215 612 386 975 568
205 102 607 282 680 304 14 4 43 15 65 25 63 28 369 135 501 176 262 80 650
181 849 219 148 29 393 71 470 80 28 4 57 8 65 10 8 2 42 7 75 10 33 4 71 8
85 11 14 2 54 6 90 9 36 3 74 7 85 10 11 2 65 6 120 10 55 3 114 8 130 10 17
2 102 7 190 10 88 4 161 8 162 8 4 4 493 -2 613 -7z"/>
<path d="M10566 18532 c-3 -9 -8 -71 -11 -137 -4 -66 -8 -132 -10 -147 -2 -16
1 -28 8 -29 7 -1 26 -2 42 -4 134 -11 194 -16 220 -19 17 -2 59 -7 95 -11 36
-3 76 -8 90 -10 14 -2 79 -11 145 -20 134 -18 173 -24 195 -30 8 -2 31 -6 50
-9 19 -3 49 -8 65 -11 135 -25 195 -37 253 -51 37 -8 78 -18 92 -20 14 -3 33
-7 42 -10 9 -3 25 -6 35 -8 199 -40 676 -187 983 -304 306 -115 738 -315 990
-457 41 -23 102 -57 135 -75 255 -141 603 -373 913 -609 406 -310 864 -740
1177 -1106 33 -38 62 -72 65 -75 3 -3 25 -30 50 -60 25 -30 47 -57 50 -60 14
-12 223 -284 296 -385 140 -194 464 -696 464 -720 0 -3 -33 -23 -74 -45 l-74
-41 34 -57 c49 -80 270 -524 331 -662 75 -170 194 -476 246 -630 41 -122 123
-383 132 -420 2 -8 26 -103 54 -210 42 -167 80 -333 97 -430 3 -14 13 -72 24
-130 17 -93 31 -187 46 -300 3 -19 7 -46 9 -60 3 -14 7 -47 10 -75 3 -27 7
-68 9 -90 20 -188 17 -159 32 -370 16 -237 9 -960 -11 -1120 -2 -16 -7 -61
-10 -100 -12 -136 -20 -200 -51 -425 -4 -33 -37 -229 -50 -295 -5 -28 -32
-161 -39 -195 -2 -8 -10 -47 -19 -86 -19 -90 -100 -405 -119 -464 -8 -25 -27
-85 -42 -135 -72 -237 -223 -642 -309 -828 -20 -42 -36 -79 -36 -82 0 -12
-193 -398 -249 -499 -34 -60 -61 -111 -61 -112 0 -7 -195 -328 -262 -431 -459
-707 -1072 -1383 -1703 -1878 -21 -16 -43 -34 -49 -40 -20 -19 -170 -131 -276
-207 -696 -498 -1464 -880 -2272 -1129 -140 -43 -506 -142 -572 -155 -11 -2
-32 -6 -46 -9 -14 -3 -34 -7 -45 -9 -11 -3 -40 -9 -65 -14 -25 -6 -65 -14 -90
-17 -24 -4 -47 -8 -50 -10 -6 -4 -175 -33 -232 -40 -24 -3 -54 -7 -68 -10 -24
-5 -72 -12 -135 -19 -16 -2 -50 -7 -75 -10 -70 -9 -129 -15 -205 -21 -38 -3
-88 -8 -110 -10 -182 -20 -854 -28 -1080 -12 -170 11 -331 24 -385 32 -14 2
-52 6 -85 10 -85 9 -254 33 -390 54 -133 22 -524 103 -625 131 -19 6 -109 31
-200 56 -323 89 -722 232 -1055 379 -125 55 -473 226 -565 278 -25 14 -72 40
-104 57 -33 18 -123 71 -200 118 -393 239 -722 476 -1070 772 -240 203 -643
605 -835 830 -16 19 -38 45 -48 56 -22 26 -126 152 -173 210 -152 188 -430
588 -571 824 -166 275 -358 643 -457 875 -24 55 -47 108 -52 117 -24 44 -174
439 -225 593 -15 46 -62 197 -93 300 -56 181 -154 609 -192 832 -5 35 -13 75
-15 90 -10 51 -42 286 -51 368 -3 28 -7 64 -9 80 -2 17 -7 71 -10 120 -4 50
-9 101 -11 115 -23 149 -23 989 1 1188 2 15 6 66 10 114 3 48 8 98 10 110 2
13 6 50 10 82 3 33 8 73 10 90 27 200 33 237 40 276 2 14 6 41 9 60 3 19 16
91 30 160 14 69 28 140 31 158 7 40 61 271 75 322 116 416 222 745 285 885 7
17 24 59 38 95 75 199 284 638 420 881 125 223 310 517 440 699 71 100 229
313 237 320 3 3 33 39 65 80 122 155 313 372 492 558 l72 75 -37 41 c-20 23
-50 52 -66 65 l-29 25 -101 -105 c-55 -57 -137 -145 -181 -194 -44 -50 -83
-92 -86 -95 -26 -22 -259 -311 -374 -465 -425 -566 -787 -1208 -1030 -1826
-31 -79 -60 -153 -65 -164 -13 -29 -72 -200 -120 -345 -110 -333 -218 -774
-280 -1137 -5 -35 -12 -75 -15 -90 -5 -31 -23 -156 -30 -218 -6 -43 -13 -100
-20 -155 -2 -19 -7 -60 -9 -90 -3 -30 -8 -89 -12 -130 -18 -198 -27 -422 -27
-670 0 -196 9 -503 18 -573 2 -16 6 -70 10 -120 4 -51 8 -105 10 -122 2 -16 7
-57 11 -90 14 -127 22 -189 43 -325 21 -130 23 -143 27 -164 2 -11 9 -50 15
-86 6 -36 22 -114 35 -174 28 -126 28 -133 12 -133 -14 0 -291 -64 -296 -68
-2 -2 4 -31 13 -66 10 -35 19 -75 22 -89 2 -14 11 -48 19 -77 8 -29 17 -63 20
-77 9 -49 116 -405 168 -556 152 -443 362 -920 565 -1284 34 -60 61 -111 61
-113 0 -5 183 -308 221 -366 22 -32 39 -60 39 -62 0 -20 423 -608 477 -663 7
-8 26 -30 41 -50 15 -21 29 -39 32 -42 3 -3 25 -30 50 -60 59 -71 83 -100 95
-114 6 -6 51 -56 100 -111 234 -262 533 -556 795 -781 392 -336 885 -686 1290
-917 392 -222 740 -392 1096 -532 93 -36 178 -70 189 -75 50 -22 401 -139 555
-185 80 -24 374 -103 410 -110 8 -2 45 -10 81 -19 37 -8 78 -17 90 -20 13 -2
44 -9 69 -15 25 -5 57 -12 73 -15 15 -2 76 -14 135 -25 59 -11 123 -23 142
-25 19 -3 44 -8 56 -10 12 -2 45 -7 74 -11 29 -4 62 -9 74 -11 12 -2 46 -6 76
-9 30 -3 66 -8 80 -10 14 -2 50 -7 80 -10 30 -3 71 -8 90 -10 19 -2 76 -7 125
-11 50 -3 103 -8 120 -10 186 -22 1003 -21 1155 1 14 2 66 6 115 10 169 12
271 23 385 40 14 2 49 7 79 10 45 5 386 62 474 80 15 3 37 7 50 9 12 2 52 11
88 20 37 8 78 17 90 20 49 9 358 88 459 117 393 114 810 270 1195 447 204 93
611 309 777 411 14 9 48 29 75 45 251 151 693 462 903 637 298 248 413 352
646 584 283 283 479 502 679 760 38 50 72 92 75 95 8 7 127 170 212 290 326
461 647 1044 860 1560 33 80 66 159 73 175 58 130 210 588 282 850 54 193 159
662 177 790 3 22 7 49 10 61 2 12 7 45 11 75 3 30 8 61 10 69 4 14 9 51 20
143 3 23 7 58 10 77 13 99 19 165 31 305 3 44 7 96 9 115 23 237 23 903 0
1185 -20 235 -23 271 -40 395 -3 25 -7 61 -10 80 -2 19 -7 58 -10 85 -8 59
-72 439 -80 475 -4 14 -8 39 -11 55 -3 17 -14 66 -24 110 -11 44 -24 103 -30
130 -7 28 -13 57 -15 65 -35 155 -113 421 -202 689 -211 640 -580 1387 -969
1964 -43 65 -83 125 -89 135 -29 49 -390 525 -440 578 -5 6 -30 36 -55 65
-112 133 -330 368 -491 529 -969 967 -2175 1691 -3474 2085 -170 51 -444 124
-570 151 -38 9 -77 17 -85 19 -80 18 -283 57 -315 61 -22 3 -56 9 -75 14 -19
5 -57 11 -85 15 -27 3 -63 8 -80 11 -36 6 -71 11 -150 20 -33 3 -62 7 -65 9
-3 2 -41 6 -85 10 -44 4 -90 8 -103 10 -12 2 -64 7 -115 10 -50 4 -102 8 -114
10 -14 2 -24 -3 -27 -13z"/>
<path d="M9767 17544 c-1 -1 -65 -5 -142 -9 -77 -3 -153 -8 -170 -10 -16 -2
-75 -6 -130 -10 -55 -4 -102 -8 -105 -10 -3 -2 -39 -6 -80 -10 -41 -3 -82 -8
-90 -10 -8 -2 -40 -7 -70 -10 -30 -3 -131 -20 -225 -36 -93 -17 -183 -33 -200
-35 -48 -9 -191 -41 -305 -69 -58 -14 -112 -28 -120 -30 -45 -10 -251 -69
-290 -82 -25 -8 -52 -16 -60 -18 -8 -2 -80 -26 -160 -53 -695 -239 -1327 -565
-1920 -991 -94 -67 -367 -276 -380 -290 -3 -4 -32 -28 -65 -56 -33 -27 -65
-54 -71 -60 -6 -5 -41 -37 -79 -70 -246 -216 -556 -534 -764 -785 -34 -41 -70
-84 -79 -95 -109 -127 -371 -492 -500 -696 -167 -264 -403 -701 -498 -924 -12
-27 -36 -84 -54 -125 -63 -146 -72 -168 -127 -315 -178 -475 -303 -956 -379
-1455 -14 -91 -27 -185 -30 -210 -2 -25 -6 -61 -9 -80 -2 -19 -7 -62 -10 -95
-3 -33 -8 -73 -10 -90 -4 -30 -14 -186 -20 -320 -2 -38 -4 -185 -5 -325 -1
-239 2 -343 15 -515 3 -38 8 -99 10 -135 3 -36 7 -84 10 -108 3 -23 7 -63 11
-90 3 -26 10 -83 16 -127 23 -179 28 -216 38 -265 5 -25 12 -61 15 -80 6 -44
9 -57 41 -210 14 -69 27 -132 29 -140 10 -50 79 -316 96 -370 11 -36 22 -74
25 -86 2 -11 31 -103 65 -205 273 -822 684 -1578 1238 -2279 41 -52 77 -97 81
-100 3 -3 44 -50 91 -105 124 -143 121 -141 222 -248 50 -53 96 -97 101 -97 6
0 42 31 81 70 l70 69 111 -107 c241 -234 405 -375 679 -588 37 -29 180 -132
277 -200 86 -61 356 -234 364 -234 3 0 18 -8 32 -19 15 -10 50 -31 77 -47 28
-15 64 -35 80 -45 120 -71 453 -237 630 -314 61 -26 124 -54 142 -61 130 -57
500 -189 668 -239 209 -62 437 -119 595 -151 14 -3 59 -12 100 -20 85 -18 81
-17 210 -38 52 -9 115 -18 140 -21 25 -3 77 -9 115 -15 106 -14 150 -19 336
-35 281 -25 890 -25 1134 0 22 3 71 7 110 10 83 7 137 12 185 19 19 3 55 8 80
11 51 7 215 31 275 40 32 6 377 76 435 89 17 4 313 83 380 101 158 43 613 208
785 285 28 12 77 34 110 48 83 37 434 212 525 263 385 212 875 550 1160 798
14 12 36 32 50 43 145 122 312 280 510 485 408 420 794 941 1090 1471 34 61
65 112 68 112 2 0 44 -21 93 -47 49 -25 91 -45 93 -42 8 9 166 328 209 424
226 505 398 1041 506 1580 21 110 42 218 45 240 6 39 11 71 21 130 3 17 12 86
20 155 8 69 17 139 19 155 3 17 8 66 11 110 4 44 9 96 10 115 24 246 24 792 0
1105 -5 75 -16 190 -19 220 -4 26 -11 87 -21 185 -2 14 -5 39 -8 55 -3 17 -8
53 -12 80 -11 85 -64 374 -91 495 -14 63 -27 122 -29 130 -26 121 -114 426
-182 629 -304 907 -784 1747 -1417 2481 -316 366 -688 716 -1107 1042 -153
119 -576 408 -597 408 -6 0 -12 3 -14 8 -9 20 -371 222 -609 340 -584 288
-1273 520 -1864 626 -247 45 -392 67 -530 81 -33 3 -71 8 -85 10 -14 3 -65 7
-115 10 -49 4 -106 8 -125 10 -100 12 -753 28 -763 19z m623 -298 c201 -13
375 -29 460 -41 14 -2 50 -6 80 -10 30 -3 93 -13 140 -20 47 -8 103 -17 125
-20 22 -4 47 -8 55 -10 8 -2 35 -7 60 -10 25 -3 61 -10 80 -15 19 -5 69 -16
110 -25 41 -9 84 -18 95 -21 11 -3 31 -7 45 -10 35 -7 241 -61 325 -85 143
-41 486 -159 631 -217 806 -322 1530 -775 2164 -1351 125 -114 374 -363 480
-480 47 -52 93 -102 102 -112 16 -17 13 -21 -55 -80 -40 -35 -81 -71 -91 -80
-19 -17 -17 -20 60 -116 43 -54 81 -100 85 -103 10 -9 165 -213 208 -275 142
-201 304 -453 383 -595 14 -25 42 -74 63 -110 61 -106 240 -475 295 -610 29
-69 58 -138 65 -155 8 -16 30 -75 51 -130 165 -447 292 -941 359 -1395 53
-360 70 -600 70 -1000 0 -425 -22 -716 -80 -1071 -54 -330 -100 -536 -189
-847 -81 -279 -195 -592 -311 -853 -42 -95 -224 -464 -245 -499 -6 -8 -48 -81
-94 -163 -109 -189 -263 -429 -346 -537 -15 -19 -43 -59 -63 -87 -21 -29 -43
-61 -52 -70 -8 -10 -42 -54 -76 -98 -54 -70 -194 -241 -209 -255 -3 -3 -45
-50 -94 -105 -177 -200 -475 -486 -703 -677 -224 -188 -646 -489 -845 -603 -9
-5 -61 -35 -115 -67 -192 -110 -250 -141 -431 -229 -100 -49 -184 -89 -186
-89 -3 0 -39 -16 -80 -35 -42 -19 -78 -35 -81 -35 -3 0 -24 -8 -48 -19 -164
-72 -593 -219 -777 -266 -105 -27 -300 -76 -315 -79 -11 -2 -54 -11 -95 -20
-41 -8 -86 -17 -100 -20 -14 -2 -63 -11 -110 -20 -123 -23 -138 -25 -290 -45
-115 -15 -149 -19 -230 -26 -41 -3 -89 -8 -106 -10 -193 -26 -927 -26 -1144 0
-19 2 -61 6 -92 9 -95 10 -172 18 -189 21 -9 2 -40 6 -70 10 -68 8 -339 52
-399 65 -25 5 -67 14 -95 21 -27 6 -59 13 -70 15 -70 13 -331 81 -445 115
-461 139 -786 272 -1260 514 -70 36 -337 190 -405 233 -241 155 -545 370 -674
478 -19 16 -75 63 -125 104 -434 362 -903 874 -1209 1320 -132 192 -230 348
-326 515 -113 195 -247 461 -331 655 -34 80 -70 163 -80 185 -34 79 -149 403
-193 545 -74 240 -169 635 -201 835 -2 17 -11 73 -20 125 -8 52 -18 115 -21
140 -12 95 -15 116 -19 155 -3 22 -8 74 -11 115 -4 41 -8 91 -10 110 -32 286
-22 951 20 1280 2 19 7 60 10 90 7 63 10 86 21 150 4 25 8 52 9 60 1 8 5 35 9
60 4 25 10 59 12 75 3 17 9 48 14 70 5 22 12 56 15 75 18 106 85 382 149 610
129 466 416 1120 690 1575 131 217 318 496 413 615 6 8 49 62 94 120 189 240
295 357 570 631 l217 216 -51 54 c-28 30 -65 69 -81 87 l-31 33 41 38 c23 21
81 71 130 112 49 41 91 76 94 79 6 7 223 175 261 203 13 9 56 40 94 68 74 54
334 229 340 229 2 0 30 17 62 39 100 66 321 190 508 285 155 79 251 124 460
217 349 154 865 314 1315 408 265 55 501 91 770 116 36 3 83 8 105 10 22 2
108 7 190 10 83 4 151 8 152 9 6 5 515 -2 613 -8z"/>
<path d="M9847 16394 c-1 -1 -75 -5 -163 -8 -89 -4 -172 -9 -185 -11 -13 -2
-61 -6 -107 -10 -45 -3 -93 -8 -105 -10 -12 -2 -44 -6 -72 -10 -104 -14 -124
-17 -270 -41 -138 -22 -362 -69 -460 -95 -22 -6 -50 -13 -62 -16 -13 -3 -23
-8 -23 -10 0 -9 32 -128 35 -131 1 -2 31 4 66 13 35 10 75 19 89 22 14 2 50
10 80 18 55 14 195 41 260 51 19 3 42 7 50 9 8 3 33 7 55 10 22 3 69 10 105
15 63 9 109 15 200 24 25 3 65 7 90 10 257 28 854 29 1125 1 68 -7 159 -16
185 -20 62 -8 177 -24 210 -30 8 -1 49 -8 90 -15 60 -10 193 -37 370 -75 21
-4 190 -50 280 -75 130 -36 430 -140 570 -197 191 -77 229 -95 467 -214 989
-495 1831 -1263 2432 -2217 39 -62 71 -115 71 -118 0 -2 12 -23 26 -46 67
-106 222 -406 301 -583 210 -471 381 -1049 448 -1520 4 -22 8 -47 10 -55 2 -8
7 -42 11 -75 3 -33 8 -69 10 -80 2 -10 6 -49 10 -85 3 -36 7 -75 9 -87 27
-166 27 -876 0 -1133 -23 -218 -48 -404 -71 -520 -30 -160 -62 -299 -118 -520
-27 -106 -130 -422 -172 -530 -119 -300 -136 -340 -253 -575 -457 -921 -1146
-1713 -2008 -2308 -277 -191 -679 -418 -953 -536 -30 -13 -77 -34 -105 -47
-333 -148 -879 -314 -1255 -380 -14 -2 -47 -9 -75 -14 -47 -9 -229 -36 -305
-45 -19 -2 -57 -7 -85 -10 -164 -20 -373 -29 -665 -29 -315 0 -443 6 -690 34
-1767 204 -3376 1190 -4365 2675 -153 230 -244 384 -359 610 -70 136 -107 215
-201 430 -171 390 -333 982 -400 1460 -9 62 -12 66 -42 61 -16 -2 -47 -7 -71
-11 -33 -5 -42 -10 -38 -23 3 -10 8 -42 11 -72 4 -30 8 -57 10 -60 1 -3 6 -32
10 -65 3 -32 8 -62 10 -65 2 -3 6 -24 9 -46 4 -23 11 -55 16 -73 5 -17 9 -34
9 -36 -1 -27 54 -261 97 -415 202 -730 555 -1442 1022 -2064 59 -78 109 -143
112 -146 3 -3 27 -32 55 -65 309 -374 691 -741 1040 -1000 44 -33 82 -62 85
-65 14 -16 251 -177 370 -252 221 -139 492 -288 690 -377 47 -22 114 -52 150
-69 290 -133 767 -288 1130 -368 190 -41 282 -59 360 -69 14 -2 39 -6 56 -9
18 -3 52 -8 75 -11 24 -3 55 -8 69 -10 14 -2 54 -6 90 -10 36 -3 76 -8 90 -10
14 -2 72 -7 130 -11 58 -4 123 -8 145 -10 143 -12 650 -5 815 11 25 2 77 7
115 10 61 5 174 18 255 30 14 2 47 6 73 10 27 4 57 8 67 10 9 2 35 6 56 10
121 19 221 40 412 85 668 161 1294 428 1882 802 125 79 390 264 434 303 6 6
27 22 48 37 20 15 42 33 50 40 7 8 33 29 58 48 25 19 47 37 50 40 3 3 23 20
45 39 125 105 187 163 350 324 99 98 213 216 254 262 41 47 82 93 90 102 32
35 187 229 246 308 33 44 63 82 66 85 6 5 236 348 278 415 91 144 289 518 366
690 139 312 301 772 350 993 2 9 10 42 18 72 16 60 63 274 72 329 3 19 7 37 9
40 2 3 7 33 11 66 3 32 8 62 10 65 2 4 7 31 10 61 3 30 7 65 10 79 2 14 7 45
10 70 3 25 8 61 10 80 40 289 51 925 20 1205 -1 17 -6 62 -9 100 -8 89 -15
152 -21 190 -3 17 -7 50 -10 75 -8 61 -43 275 -55 330 -5 25 -12 60 -15 79 -3
19 -8 37 -10 41 -2 4 -7 22 -10 41 -3 19 -11 52 -17 74 -5 22 -12 51 -15 65
-8 47 -94 344 -133 460 -69 206 -143 398 -210 546 -17 35 -30 67 -30 70 0 3
-44 94 -98 202 -221 441 -489 850 -808 1232 -227 272 -572 609 -864 846 -742
602 -1637 1031 -2575 1234 -206 45 -414 81 -550 96 -32 3 -66 7 -75 9 -9 2
-54 6 -101 10 -46 4 -92 9 -101 10 -47 9 -643 26 -651 19z"/>
<path d="M9757 16024 c-1 -1 -54 -5 -117 -8 -63 -4 -131 -8 -150 -10 -19 -3
-62 -7 -95 -10 -33 -3 -76 -8 -95 -10 -19 -3 -71 -10 -115 -16 -920 -124
-1837 -491 -2605 -1045 -97 -70 -301 -228 -355 -276 -16 -14 -70 -62 -120
-105 -98 -86 -345 -330 -441 -434 -632 -697 -1088 -1529 -1328 -2426 -25 -93
-47 -180 -50 -194 -2 -14 -16 -77 -29 -140 -14 -63 -28 -133 -32 -155 -4 -22
-8 -49 -10 -60 -2 -11 -6 -40 -9 -65 -3 -25 -8 -56 -11 -70 -4 -23 -7 -41 -19
-147 -3 -21 -8 -69 -12 -108 -4 -38 -8 -83 -10 -100 -22 -223 -22 -695 1 -960
6 -70 16 -179 20 -205 2 -14 6 -50 10 -80 38 -318 140 -760 252 -1090 238
-702 594 -1340 1058 -1895 262 -314 626 -664 925 -890 36 -27 67 -52 70 -55
11 -13 271 -192 375 -258 221 -140 511 -297 715 -387 47 -21 105 -47 130 -57
88 -40 318 -126 440 -166 211 -68 254 -81 417 -122 138 -34 195 -47 338 -75
30 -6 124 -22 180 -31 17 -2 41 -6 55 -9 14 -2 50 -7 80 -10 30 -3 66 -8 80
-10 14 -2 57 -7 95 -11 39 -3 79 -8 89 -10 48 -9 303 -18 516 -18 243 0 398 7
605 28 56 6 85 9 175 21 19 3 55 7 80 10 25 3 52 8 60 10 8 3 35 7 60 10 25 3
56 7 70 10 14 3 36 7 50 10 706 132 1405 408 2024 798 149 94 425 290 531 378
273 226 514 455 695 659 41 47 78 87 81 90 3 3 53 64 112 137 l107 132 -195
150 -195 150 -104 -127 c-57 -70 -128 -154 -157 -187 -79 -89 -363 -371 -448
-445 -41 -36 -79 -69 -85 -75 -38 -34 -225 -181 -296 -233 -47 -34 -91 -67
-97 -72 -33 -27 -282 -185 -393 -249 -422 -243 -858 -421 -1330 -545 -52 -14
-106 -27 -120 -30 -14 -2 -68 -14 -120 -25 -102 -21 -309 -58 -375 -66 -22 -2
-60 -7 -85 -10 -69 -9 -128 -15 -205 -20 -38 -3 -99 -7 -135 -10 -81 -7 -533
-8 -620 -1 -163 12 -226 18 -254 21 -17 3 -60 7 -96 10 -36 4 -72 8 -80 10 -8
3 -35 7 -60 10 -25 3 -70 10 -100 15 -30 6 -68 13 -85 16 -16 2 -102 21 -190
40 -731 161 -1445 491 -2048 946 -65 49 -128 97 -140 108 -12 10 -58 48 -102
85 -359 302 -725 708 -982 1090 -62 93 -213 334 -213 340 0 2 -14 28 -31 57
-102 172 -261 517 -348 758 -29 80 -57 154 -61 165 -38 91 -155 548 -184 720
-29 170 -39 236 -51 345 -4 36 -9 79 -11 95 -26 222 -26 934 1 1073 1 9 6 46
10 82 6 66 8 80 20 160 162 1105 677 2145 1460 2950 105 108 233 230 314 300
36 30 69 60 75 66 24 23 257 204 341 265 406 294 895 546 1375 711 247 85 572
170 775 203 17 3 41 8 55 10 70 14 91 18 195 31 28 3 57 8 66 9 9 2 52 7 95
11 43 3 93 8 109 10 90 9 320 17 455 17 147 0 420 -10 457 -17 10 -2 54 -7 98
-11 83 -7 132 -12 175 -20 14 -3 48 -7 75 -11 28 -3 95 -14 150 -24 55 -11
111 -21 125 -24 42 -7 119 -25 245 -57 433 -108 886 -289 1290 -514 148 -83
468 -290 567 -367 15 -12 29 -20 32 -17 17 19 278 373 282 383 4 11 -45 49
-231 178 -338 234 -811 477 -1225 630 -220 82 -421 143 -665 204 -5 1 -21 4
-35 7 -14 3 -65 15 -115 26 -49 11 -103 22 -120 25 -108 20 -144 26 -175 31
-19 2 -82 11 -140 19 -58 8 -134 18 -170 21 -36 3 -81 8 -100 10 -94 13 -752
29 -763 19z"/>
<path d="M9749 14626 c-2 -2 -47 -7 -99 -10 -653 -46 -1296 -247 -1915 -600
-185 -106 -646 -441 -662 -482 -3 -7 1 -20 9 -27 7 -8 38 -42 68 -78 30 -35
71 -82 91 -103 l37 -40 33 26 c19 15 68 54 109 88 167 135 412 299 585 391 33
18 83 44 110 59 143 76 418 189 605 250 158 51 368 105 475 124 17 2 67 12
112 20 45 8 108 18 140 21 32 4 69 8 83 11 124 20 648 27 820 11 131 -12 336
-39 390 -52 3 -1 25 -5 50 -9 254 -45 628 -164 900 -287 134 -60 381 -190 411
-215 8 -8 19 -14 23 -14 10 0 198 -123 281 -183 251 -183 460 -371 655 -587
47 -52 87 -97 90 -100 13 -12 160 -201 207 -265 64 -88 183 -272 183 -283 0
-4 5 -13 12 -20 32 -32 180 -324 261 -512 45 -106 130 -343 147 -409 5 -20 23
-87 39 -149 31 -115 75 -321 86 -402 6 -46 14 -106 20 -150 4 -26 12 -121 20
-230 5 -69 6 -438 1 -505 -6 -73 -18 -210 -21 -225 -1 -8 -6 -44 -10 -80 -4
-36 -9 -74 -11 -85 -2 -11 -7 -33 -9 -50 -13 -71 -25 -141 -29 -160 -181 -878
-685 -1721 -1376 -2304 -105 -89 -104 -88 -213 -169 -364 -272 -794 -491
-1227 -625 -132 -41 -365 -100 -460 -116 -36 -6 -76 -13 -90 -16 -14 -3 -38
-7 -55 -9 -16 -2 -52 -7 -80 -11 -192 -25 -275 -30 -540 -30 -232 0 -443 9
-478 20 -6 2 -40 6 -74 10 -115 11 -385 63 -523 102 -146 41 -409 128 -475
157 -16 8 -82 36 -145 64 -127 56 -281 135 -379 194 -34 21 -65 38 -67 38 -2
0 -43 25 -90 56 -47 31 -90 52 -94 47 -4 -4 -46 -65 -93 -136 l-86 -127 57
-37 c147 -94 301 -182 457 -258 225 -110 244 -118 425 -185 262 -97 507 -165
761 -209 153 -27 153 -27 324 -47 236 -26 785 -26 947 1 13 2 50 6 83 10 33 3
67 7 75 10 8 2 33 6 55 9 283 34 769 173 1070 306 710 313 1301 772 1773 1375
63 80 232 324 258 370 6 11 24 43 41 70 88 143 203 368 283 554 52 122 162
428 175 487 2 11 17 71 34 134 44 169 57 233 90 440 39 249 46 351 46 675 0
277 -7 417 -31 575 -2 19 -9 64 -14 100 -13 90 -48 273 -67 345 -8 33 -17 68
-18 78 -11 53 -74 260 -115 377 -41 117 -59 165 -100 265 -19 46 -192 395
-223 450 -327 579 -820 1118 -1362 1488 -297 203 -647 387 -949 499 -267 99
-603 191 -816 223 -20 3 -47 8 -60 10 -14 3 -43 8 -65 11 -22 2 -51 6 -65 9
-14 2 -59 7 -100 10 -41 4 -84 9 -95 12 -24 6 -620 14 -626 9z"/>
<path d="M13320 13853 c-18 -21 -42 -48 -53 -60 l-20 -22 154 -153 c168 -166
236 -241 368 -406 529 -656 873 -1423 1015 -2267 16 -93 19 -114 31 -225 4
-36 9 -78 11 -95 18 -144 24 -612 10 -800 -11 -141 -23 -264 -32 -310 -2 -11
-6 -40 -9 -65 -22 -184 -100 -517 -175 -755 -32 -100 -95 -279 -109 -310 -6
-11 -31 -69 -57 -130 -55 -131 -210 -443 -230 -466 -8 -8 -14 -18 -14 -21 0
-19 -163 -276 -269 -423 -709 -990 -1775 -1686 -2951 -1929 -136 -28 -141 -29
-257 -46 -43 -6 -89 -13 -103 -15 -14 -3 -56 -7 -95 -11 -38 -3 -79 -8 -90
-10 -117 -23 -775 -22 -905 0 -14 3 -52 7 -85 10 -62 5 -101 11 -195 26 -30 5
-71 12 -90 15 -121 19 -384 77 -475 105 -497 153 -817 291 -1188 514 -132 79
-409 265 -427 286 -3 3 -44 36 -92 73 -47 37 -93 73 -100 79 -7 7 -47 42 -88
77 -76 66 -352 338 -425 421 -510 571 -889 1282 -1075 2015 -35 138 -72 307
-84 380 -2 17 -8 50 -11 75 -4 25 -8 52 -10 60 -8 49 -22 166 -30 260 -27 292
-22 745 9 965 3 17 8 62 11 100 4 39 9 73 11 76 1 3 6 28 9 55 12 86 63 335
96 459 17 66 32 126 33 134 0 9 -26 21 -75 36 l-77 22 -27 -100 c-15 -55 -28
-109 -30 -119 -3 -11 -7 -28 -10 -38 -3 -10 -8 -29 -10 -41 -3 -13 -13 -66
-24 -118 -21 -102 -24 -119 -40 -221 -13 -81 -19 -129 -26 -200 -3 -30 -7 -64
-10 -75 -10 -54 -20 -295 -20 -510 1 -273 7 -377 36 -615 15 -118 15 -120 23
-170 4 -25 9 -56 12 -70 12 -81 57 -283 94 -425 33 -129 149 -482 174 -530 9
-17 16 -34 16 -40 0 -36 203 -454 313 -645 100 -173 364 -563 407 -600 3 -3
37 -43 75 -90 38 -47 83 -100 100 -119 16 -18 41 -45 54 -60 502 -558 1161
-1012 1886 -1299 118 -47 384 -137 470 -158 33 -9 85 -22 115 -30 79 -21 317
-71 370 -79 25 -3 63 -10 85 -15 22 -5 65 -11 95 -14 30 -4 66 -8 80 -11 25
-4 65 -8 220 -22 173 -16 818 -7 890 12 8 2 47 6 85 10 39 3 95 10 125 15 30
5 75 12 100 15 25 4 68 11 95 16 28 5 66 12 85 15 91 15 437 109 597 163 922
308 1714 866 2350 1655 106 131 284 393 390 575 274 468 507 1080 589 1551 2
14 7 35 9 48 10 42 34 186 40 242 3 30 8 66 10 80 5 32 13 118 25 240 8 96 6
701 -4 775 -3 22 -8 69 -11 105 -14 136 -51 385 -65 440 -5 19 -12 50 -15 68
-26 152 -159 616 -205 717 -5 11 -19 47 -31 80 -12 33 -37 93 -55 133 -19 41
-34 77 -34 81 0 19 -178 364 -257 500 -219 375 -461 687 -779 1008 -100 101
-183 183 -186 183 -3 0 -20 -17 -38 -37z"/>
<path d="M8219 13662 c-241 -124 -389 -218 -609 -386 -58 -44 -116 -90 -130
-102 -14 -12 -50 -43 -80 -69 -92 -81 -314 -309 -393 -403 -312 -375 -540
-770 -701 -1214 -62 -171 -128 -404 -152 -538 -2 -14 -9 -45 -14 -70 -10 -47
-14 -77 -31 -200 -5 -41 -12 -88 -14 -105 -23 -168 -24 -674 0 -825 2 -14 6
-50 10 -80 3 -30 10 -77 15 -105 5 -27 12 -68 15 -90 25 -175 157 -640 211
-744 8 -14 14 -30 14 -36 0 -5 30 -75 67 -155 61 -131 87 -181 178 -345 63
-112 272 -418 330 -481 5 -6 28 -33 50 -60 161 -196 393 -420 600 -580 351
-272 688 -456 1109 -609 160 -57 401 -124 546 -150 14 -2 36 -7 50 -10 81 -16
283 -42 405 -52 211 -17 664 -5 815 22 14 3 45 7 70 10 25 3 92 14 150 26 444
86 848 237 1230 459 117 68 342 217 393 259 12 10 67 55 122 99 565 456 1008
1094 1239 1787 47 140 119 405 130 480 3 22 10 63 16 90 10 55 18 106 26 175
3 25 7 56 9 70 27 198 26 691 0 873 -2 18 -7 50 -9 72 -15 129 -58 360 -69
371 -3 3 -25 0 -48 -6 -24 -7 -55 -14 -69 -17 -14 -3 -29 -6 -35 -7 -5 -1 -36
-8 -67 -15 -32 -7 -58 -14 -58 -16 0 -2 11 -59 24 -127 13 -67 27 -150 31
-183 4 -33 9 -69 11 -80 31 -169 24 -743 -11 -944 -4 -19 -9 -53 -11 -75 -16
-132 -129 -560 -174 -661 -5 -11 -27 -66 -49 -122 -51 -130 -159 -346 -244
-488 -206 -347 -480 -666 -800 -933 -141 -117 -169 -138 -332 -246 -366 -241
-798 -424 -1210 -512 -277 -59 -470 -79 -775 -79 -188 0 -414 10 -430 20 -3 1
-30 6 -60 9 -477 56 -1022 255 -1456 532 -119 76 -287 194 -304 213 -3 4 -45
40 -95 81 -155 129 -341 316 -465 469 -19 23 -39 48 -45 54 -21 25 -122 165
-160 222 -22 33 -43 62 -47 63 -5 2 -8 7 -8 12 0 5 -22 44 -48 87 -197 317
-358 726 -441 1118 -33 158 -35 167 -57 360 -23 198 -23 654 0 785 3 14 7 49
10 78 3 29 8 63 11 75 3 12 7 38 9 57 10 83 58 286 110 460 66 222 189 508
310 720 14 25 33 59 42 75 27 48 173 264 222 330 233 306 566 621 875 828 149
100 198 128 359 212 l137 70 -36 75 c-19 41 -46 99 -58 128 -13 28 -28 52 -33
52 -5 0 -61 -26 -123 -58z"/>
</g>
</svg>
